…
``` r
##dataset of aisle_id and number of items ordered from the aisles over 10000 to check for the aisle with the most items ordered from
instacart %>%
  mutate(
    large = case_when(
      n > 10000 ~ "large",
      n <= 10000 ~ "not_large",
      TRUE     ~ ""
    )) %>%
  filter(large == "large") %>%
  group_by(aisle_id, large)
```

    ## # A tibble: 39 x 3
    ## # Groups:   aisle_id, large [39]
    ##    aisle_id      n large
    ##       <int>  <int> <chr>
    ##  1        3  17449 large
    ##  2       16  16052 large
    ##  3       17  13088 large
    ##  4       19  10620 large
    ##  5       21  41699 large
    ##  6       24 150473 large
    ##  7       31  23228 large
    ##  8       32  13460 large
    ##  9       36  10575 large
    ## 10       37  22676 large
    ## # … with 29 more rows
…
    ## Warning: Expected 2 pieces. Additional pieces discarded in 5 rows [121,
    ## 122, 123, 124, 125].

    ## # A tibble: 36 x 3
    ## # Groups:   observed [1]
    ##    state     n observed
    ##    <chr> <int> <chr>   
    ##  1 "AZ "    10 observed
    ##  2 "CO "    20 observed
    ##  3 "CT "    35 observed
    ##  4 "DE "    15 observed
    ##  5 "FL "    35 observed
    ##  6 "GA "    15 observed
    ##  7 "HI "    20 observed
    ##  8 "ID "    10 observed
    ##  9 "IL "    15 observed
    ## 10 "IN "    10 observed
    ## # … with 26 more rows
…
    ## Warning: Expected 2 pieces. Additional pieces discarded in 5 rows [311,
    ## 312, 313, 314, 315].

    ## # A tibble: 45 x 3
    ## # Groups:   observed [1]
    ##    state     n observed
    ##    <chr> <int> <chr>   
    ##  1 "AL "    15 observed
    ##  2 "AR "    15 observed
    ##  3 "AZ "    15 observed
    ##  4 "CA "    60 observed
    ##  5 "CO "    35 observed
    ##  6 "CT "    25 observed
    ##  7 "DE "    15 observed
    ##  8 "FL "   205 observed
    ##  9 "GA "    20 observed
    ## 10 "HI "    20 observed
    ## # … with 35 more rows
…
